Workshop 3 - 9 de fevereiro
…
#banco de exportacao
exportacao<-read_excel("dados/export_sc.xlsx")

Como comentei no workshop anterior, o pacote tidyr (incluso no tidyverse) nos permite remodelar a estrutura da tabela, transformando linhas em colunas e vice-versa. Por vezes nossas tabelas precisam ser reestruturadas por causa do tipo de gráfico que queremos elaborar ou da forma como determinada função exige que os dados sejam apresentados.

As tabelas podem ser estruturadas de duas formas, em formato long, que em português costumamos chamar de painel, ou no formato wide. O formato painel apresenta todos os valores observados das variáveis para a unidade de análise nas linhas da tabela, enquanto no formato wide os valores observados para cada unidade de análise se encontram organizados em colunas separadas.

Vamos primeiro entender qual é a nossa unidade de análise. Para o nosso caso, estamos analisando os valores de migração, exportação e importação de Santa Catarina por país e ano. País e ano são nossas unidades de análise. Desta forma, se os valores de uma tabela forem apresentados por país e por ano nas linhas a tabela terá um formato long. Se elas forem apresentadas com país na linha e ano na coluna, ou ano na linha e e país na coluna a tabela terá o formato wide.

No caso das nossas tabelas, a tabela de migração apresenta formato de painel (long). Repare que para cada caso de nosso banco os países e anos estão nas linhas.

migracao

## # A tibble: 826,375 x 7
##       X1 DATA_REG   CLASSIFICACAO UFRES PNASC_DESC          SEXO_DESCRICAO   ano
##    <dbl> <chr>      <chr>         <chr> <chr>               <chr>          <dbl>
##  1     1 04/01/2010 PERMANENTE    SP    ITALIA              Masculino       2010
##  2     2 04/01/2010 PERMANENTE    AM    BELGICA             Feminino        2010
##  3     3 04/01/2010 PERMANENTE    RJ    ITALIA              Masculino       2010
##  4     4 04/01/2010 PERMANENTE    PR    COSTA RICA          Masculino       2010
##  5     5 04/01/2010 PERMANENTE    AP    GUINE BISSAU        Feminino        2010
##  6     6 04/01/2010 PERMANENTE    RJ    REPUBLICA POPULAR … Masculino       2010
##  7     7 04/01/2010 PERMANENTE    RS    MEXICO              Masculino       2010
##  8     8 04/01/2010 PERMANENTE    PR    SUICA               Masculino       2010
##  9     9 04/01/2010 PERMANENTE    SP    REPUBLICA POPULAR … Feminino        2010
## 10    10 04/01/2010 PERMANENTE    RJ    ESTADOS UNIDOS DA … Masculino       2010
## # … with 826,365 more rows

Por sua vez, nossas tabelas de exportação e importação estão no formato wide pois os países estão na linha e os anos estão nas colunas, ou seja, as colunas apresentam os valores de exportação e importação para cada ano.

exportacao

## # A tibble: 232 x 12
##    `UF do Municípi… País  `2019 - Valor F… `2018 - Valor F… `2017 - Valor F…
##    <chr>            <chr>            <dbl>            <dbl>            <dbl>
##  1 Santa Catarina   China       1589499886       3508475541       1387040317
##  2 Santa Catarina   Esta…       1440141803       1491866039       1550676302
##  3 Santa Catarina   Japão        561745487        536371415        646116312
##  4 Santa Catarina   Arge…        447748671        552792985        600795239
##  5 Santa Catarina   Méxi…        378975807        342542623        370202508
##  6 Santa Catarina   Aráb…        378497673        385196450        415060832
##  7 Santa Catarina   Chile        319902112        284802121        296522108
##  8 Santa Catarina   Emir…        288968147        266484776        250951898
##  9 Santa Catarina   Hong…        264453882        297468554        298270270
## 10 Santa Catarina   Rein…        260757521        257047712        331852429
## # … with 222 more rows, and 7 more variables: `2016 - Valor FOB (US$)` <dbl>,
## #   `2015 - Valor FOB (US$)` <dbl>, `2014 - Valor FOB (US$)` <dbl>, `2013 -
## #   Valor FOB (US$)` <dbl>, `2012 - Valor FOB (US$)` <dbl>, `2011 - Valor FOB
## #   (US$)` <dbl>, `2010 - Valor FOB (US$)` <dbl>
…
names_to= será a nova coluna criada a partir dos nomes das colunas. Insira neste argumento o nome que esta nova coluna receberá na forma de string, ou seja, entre aspas. No nosso exemplo daremos o nome de ano_bruto. Escolhi esse nome porque a seguir criaremos outra coluna apenas com os anos a partir desta.

values_to= será a nova coluna que receberá os valores que serão colapsados no formato long a partir das antigas colunas. Colocaremos aí o nome desta nova coluna em formato string, que será valor.

Salvarei essa transformação no objeto exportacao pois este será o formato final do nosso banco. Estamos subscrevendo o banco anterior, salvando, assim, espaço em memória.

exportacao<- exportacao%>%
  pivot_longer(cols=`2019 - Valor FOB (US$)`:`2010 - Valor FOB (US$)`,
               names_to = "ano_bruto",
               values_to = "valor")

exportacao

## # A tibble: 2,320 x 4
##    `UF do Município` País  ano_bruto                   valor
##    <chr>             <chr> <chr>                       <dbl>
##  1 Santa Catarina    China 2019 - Valor FOB (US$) 1589499886
##  2 Santa Catarina    China 2018 - Valor FOB (US$) 3508475541
##  3 Santa Catarina    China 2017 - Valor FOB (US$) 1387040317
##  4 Santa Catarina    China 2016 - Valor FOB (US$) 1096838348
##  5 Santa Catarina    China 2015 - Valor FOB (US$)  829695943
##  6 Santa Catarina    China 2014 - Valor FOB (US$) 1149980960
##  7 Santa Catarina    China 2013 - Valor FOB (US$)  999306427
##  8 Santa Catarina    China 2012 - Valor FOB (US$)  900878336
##  9 Santa Catarina    China 2011 - Valor FOB (US$)  706020312
## 10 Santa Catarina    China 2010 - Valor FOB (US$)  427097677
## # … with 2,310 more rows

Veja no dashboard que para criar um gráfico de linhas precisaremos dos valores de cada país por ano. Dessa forma, temos que criar uma coluna apenas com os anos. Para isso utilizaremos o pacote stringr, que faz parte do tidyverse, para retirarmos apenas os anos da coluna ano_bruto e salvarmos em uma nova coluna que chamarei de ano.

Não veremos o stringr com detalhes neste workshop. Resumidamente, esse pacote possui funções para a manipulação de strings, ou seja, palavras. Deste pacote, utilizaremos a função substr, de “substract” que irá retirar da coluna ano_bruto os elementos que incluiremos nos argumentos start e stop. Queremos retirar os quatro primeiros elementos da string que nos dão os anos. Assim, start recebe 1 e stop recebe 4. Vamos salvar o resultado em uma nova variável chamada ano. Para isso estamos usando o $ para acessar uma coluna na tabela, como vimos no workshop passado, e escrevemos o nome da nova coluna logo depois do símbolo.

exportacao$ano<-substr(exportacao$ano_bruto, start=1, stop=4)

exportacao

## # A tibble: 2,320 x 5
##    `UF do Município` País  ano_bruto                   valor ano  
##    <chr>             <chr> <chr>                       <dbl> <chr>
##  1 Santa Catarina    China 2019 - Valor FOB (US$) 1589499886 2019 
##  2 Santa Catarina    China 2018 - Valor FOB (US$) 3508475541 2018 
##  3 Santa Catarina    China 2017 - Valor FOB (US$) 1387040317 2017 
##  4 Santa Catarina    China 2016 - Valor FOB (US$) 1096838348 2016 
##  5 Santa Catarina    China 2015 - Valor FOB (US$)  829695943 2015 
##  6 Santa Catarina    China 2014 - Valor FOB (US$) 1149980960 2014 
##  7 Santa Catarina    China 2013 - Valor FOB (US$)  999306427 2013 
##  8 Santa Catarina    China 2012 - Valor FOB (US$)  900878336 2012 
##  9 Santa Catarina    China 2011 - Valor FOB (US$)  706020312 2011 
## 10 Santa Catarina    China 2010 - Valor FOB (US$)  427097677 2010 
## # … with 2,310 more rows
…
Além dessa alterção, precisamos filtrar apenas os países de interesse da coluna país. Faremos da mesma forma como apresentado no workshop anterior: criaremos um vetor com o nome dos países e o incluíremos na função filter com símbolo %in%. Por fim, vamos selecionar apenas as colunas que nos interessam, País, valor e ano e salvaremos todas as alterações no objeto exportacao. Por fim, utilizaremos mais uma função do dplyr, a rename, para alterar o nome da coluna País para pais, assim evitamos acentos em nossa programação. Faremos todas essas alterações em apenas um bloco de código

#primeiro crio o vetor com os países que serão filtrados
paises<-c("Alemanha", "China", "Estados Unidos", "França", "Itália", "Japão",
          "Reino Unido")

exportacao<-exportacao%>%
  mutate(valor_milhoes=valor/1000000)%>%
  filter(País %in% paises)%>%
  select(País, valor_milhoes, ano)%>%
  rename(pais=País)
  
exportacao

## # A tibble: 70 x 3
##    pais  valor_milhoes ano  
##    <chr>         <dbl> <chr>
##  1 China         1589. 2019 
##  2 China         3508. 2018 
##  3 China         1387. 2017 
##  4 China         1097. 2016 
##  5 China          830. 2015 
##  6 China         1150. 2014 
##  7 China          999. 2013 
##  8 China          901. 2012 
##  9 China          706. 2011 
## 10 China          427. 2010 
## # … with 60 more rows
…
