Workshop 2 - 2 de fevereiro
…
Caso eu queira retornas a terceira linha de todo o data frame:

migracao[3, ]

## # A tibble: 1 x 7
##      X1 DATA_REG   CLASSIFICACAO UFRES PNASC_DESC SEXO_DESCRICAO   ano
##   <dbl> <chr>      <chr>         <chr> <chr>      <chr>          <dbl>
## 1     3 04/01/2010 PERMANENTE    RJ    ITALIA     Masculino       2010

Se eu quiser todo o banco exceto a primeira coluna:

migracao[, -1]

## # A tibble: 826,375 x 6
##    DATA_REG   CLASSIFICACAO UFRES PNASC_DESC                SEXO_DESCRICAO   ano
##    <chr>      <chr>         <chr> <chr>                     <chr>          <dbl>
##  1 04/01/2010 PERMANENTE    SP    ITALIA                    Masculino       2010
##  2 04/01/2010 PERMANENTE    AM    BELGICA                   Feminino        2010
##  3 04/01/2010 PERMANENTE    RJ    ITALIA                    Masculino       2010
##  4 04/01/2010 PERMANENTE    PR    COSTA RICA                Masculino       2010
##  5 04/01/2010 PERMANENTE    AP    GUINE BISSAU              Feminino        2010
##  6 04/01/2010 PERMANENTE    RJ    REPUBLICA POPULAR DA CHI… Masculino       2010
##  7 04/01/2010 PERMANENTE    RS    MEXICO                    Masculino       2010
##  8 04/01/2010 PERMANENTE    PR    SUICA                     Masculino       2010
##  9 04/01/2010 PERMANENTE    SP    REPUBLICA POPULAR DA CHI… Feminino        2010
## 10 04/01/2010 PERMANENTE    RJ    ESTADOS UNIDOS DA AMERICA Masculino       2010
## # … with 826,365 more rows

Na verdade nós não precisaremos da coluna X1 para as nossas análises. Para retirá-la poderíamos utilizar o código acima e salvá-lo no próprio objeto migração. Faríamos o seguinte: migracao<-migracao[ , -1].

Vamos fazer a mesma coisa de uma forma diferente. Para acessar uma variável do banco para fazer alguma alteração nela utilizamos o símbolo $; escrevemos o nome do data frame, seguido de $ e o nome da variável. Para deletar uma coluna utilizamos a função NULL. Dessa forma, outra maneira de retirar a coluna X1 de migração seria a seguinte:

migracao$X1<-NULL

migracao

## # A tibble: 826,375 x 6
##    DATA_REG   CLASSIFICACAO UFRES PNASC_DESC                SEXO_DESCRICAO   ano
##    <chr>      <chr>         <chr> <chr>                     <chr>          <dbl>
##  1 04/01/2010 PERMANENTE    SP    ITALIA                    Masculino       2010
##  2 04/01/2010 PERMANENTE    AM    BELGICA                   Feminino        2010
##  3 04/01/2010 PERMANENTE    RJ    ITALIA                    Masculino       2010
##  4 04/01/2010 PERMANENTE    PR    COSTA RICA                Masculino       2010
##  5 04/01/2010 PERMANENTE    AP    GUINE BISSAU              Feminino        2010
##  6 04/01/2010 PERMANENTE    RJ    REPUBLICA POPULAR DA CHI… Masculino       2010
##  7 04/01/2010 PERMANENTE    RS    MEXICO                    Masculino       2010
##  8 04/01/2010 PERMANENTE    PR    SUICA                     Masculino       2010
##  9 04/01/2010 PERMANENTE    SP    REPUBLICA POPULAR DA CHI… Feminino        2010
## 10 04/01/2010 PERMANENTE    RJ    ESTADOS UNIDOS DA AMERICA Masculino       2010
## # … with 826,365 more rows
…
Vamos começar a limpar os nossos bancos. Vamos dar uma olhada no banco de migração. Caso queiramos reproduzir o gráfico de migração do dashboard vamos precisar realizar as seguintes limpezas neste banco:

selecionar apenas as colunas de interesse que são as de estado (UFRES), país (PNASC_DESC), sexo (SEXO_DESCRICAO) e ano.

filtrar na coluna estado apenas Santa Catarina

filtrar na coluna país apenas aqueles de interesse: Alemanha, China, Estados Unidos, França, Itália, Japão e Reino Unido.

agrupar as linhas por sexo e país para contar quantos homens e mulheres entraram no país.

Vamos passo a passo. Primeiro vamos selecionar as variáveis. No dplyr utilizamos a função select() para isso. Após digitar select colocamos, entre parênteses, o nome do banco e das colunas que queremos selecionar separados por vírgula.

select(migracao, UFRES, PNASC_DESC, SEXO_DESCRICAO, ano)

## # A tibble: 826,375 x 4
##    UFRES PNASC_DESC                 SEXO_DESCRICAO ano  
##    <chr> <fct>                      <fct>          <fct>
##  1 SP    ITALIA                     Masculino      2010 
##  2 AM    BELGICA                    Feminino       2010 
##  3 RJ    ITALIA                     Masculino      2010 
##  4 PR    COSTA RICA                 Masculino      2010 
##  5 AP    GUINE BISSAU               Feminino       2010 
##  6 RJ    REPUBLICA POPULAR DA CHINA Masculino      2010 
##  7 RS    MEXICO                     Masculino      2010 
##  8 PR    SUICA                      Masculino      2010 
##  9 SP    REPUBLICA POPULAR DA CHINA Feminino       2010 
## 10 RJ    ESTADOS UNIDOS DA AMERICA  Masculino      2010 
## # … with 826,365 more rows

Vamos salvar esse resultado em um objeto diferente de migracao para não perdermos os dados brutos

migracao_select<-select(migracao, UFRES, PNASC_DESC, SEXO_DESCRICAO, ano)

Agora vamos utilizar este último objeto que criamos, o migracao_select para selecionar o estado de Santa Catarina. Para isso vamos utilizar a função filter(). Após filter digitamos dentro dos parênteses o nome do banco seguido de vírgula, o nome da coluna que se quer filtrar, um sinal de igual duplo == e a linha que queremos filtrar. Vamos salvar esse resultado em outro objeto chamado de migracao_sc. Repare pelo painel Environment que o número de linhas de migracao_sc vai reduzir bastante comparado com o de migracao_select.

migracao_sc<-filter(migracao_select, UFRES=="SC")

migracao_sc

## # A tibble: 54,618 x 4
##    UFRES PNASC_DESC    SEXO_DESCRICAO ano  
##    <chr> <fct>         <fct>          <fct>
##  1 SC    CUBA          Masculino      2010 
##  2 SC    LIBANO        Masculino      2010 
##  3 SC    PARAGUAI      Feminino       2010 
##  4 SC    RUSSIA        Feminino       2010 
##  5 SC    ARGENTINA     Masculino      2010 
##  6 SC    COREIA DO SUL Masculino      2010 
##  7 SC    ARGENTINA     Masculino      2010 
##  8 SC    PORTUGAL      Masculino      2010 
##  9 SC    ARGENTINA     Feminino       2010 
## 10 SC    PERU          Feminino       2010 
## # … with 54,608 more rows

Este novo banco contêm apenas as variáveis selecionadas em migracao_limp e as linhas de Santa Catarina filtradas em migracao_sc. No entanto, esse processo tem muitos passos separados, cria muitos objetos (o que pode causar confusão), e torna o código confuso.

A alternativa é fazer todos esses passos de uma só vez. Para isso podemos utilizar os pipes %>%, que permitem que o resultado de uma função seja “enviado” para a função seguinte. Os pipes são parte do pacote magrittr que são instalados automaticamente com o dplyr.

Como ainda temos o banco bruto migracao podemos utilizá-lo para refazer este trabalho agora utilizando pipes. Selecionarei as variáveis e filtrarei o estado de SC e salvarei o resultado no próprio objeto migracao. Já que não utilizaremos os dados que estamos descartando não tem problema de subscrevermos esse objeto. Ao utilizar pipe primeiro coloco o nome do objeto em que está o banco sendo utilizado e vou incluindo pipes para cada função utilizada. Veja a seguir:

migracao<-migracao%>%
  select(UFRES, PNASC_DESC, SEXO_DESCRICAO, ano)%>%
  filter(UFRES=="SC")

migracao

## # A tibble: 54,618 x 4
##    UFRES PNASC_DESC    SEXO_DESCRICAO ano  
##    <chr> <fct>         <fct>          <fct>
##  1 SC    CUBA          Masculino      2010 
##  2 SC    LIBANO        Masculino      2010 
##  3 SC    PARAGUAI      Feminino       2010 
##  4 SC    RUSSIA        Feminino       2010 
##  5 SC    ARGENTINA     Masculino      2010 
##  6 SC    COREIA DO SUL Masculino      2010 
##  7 SC    ARGENTINA     Masculino      2010 
##  8 SC    PORTUGAL      Masculino      2010 
##  9 SC    ARGENTINA     Feminino       2010 
## 10 SC    PERU          Feminino       2010 
## # … with 54,608 more rows

Repare que agora o banco migracao está igual ao migracao_sc pois realizamos as mesmas operações, porém com um código mais conciso.

Mas ainda precisamos fazer mais limpeza nesse banco. Temos que filtrar os países de interesse. No exemplo acima tínhamos filtrado apenas um caso. Como fazemos quando precisamos filtrar vários casos. Temos mais de uma forma de realizar essa operação: uma mais longa e outra mais concisa.

Primeiro a mais longa. Ao invés de filtrar todos os países vamos selecionar apeans França, Itália e Alemanha para ilustrar, sem salvar em objeto. Filtraremos todos os casos e salvaremos no objeto quando eu apresentar a segunda forma.

Antes de tudo é preciso verificar como estão escritos os nomes que vamos filtrar. Repare que estão em letra maiúscula e lembre-se de que o R é sensível à letras maísculas e minúsculas. Devemos escrever da mesma forma como aparece no banco. A seguir faremos a filtragem utilizando o pipes como feito acima. Vejamos:

migracao%>%
  filter(PNASC_DESC=="ALEMANHA"| PNASC_DESC=="ITALIA" | PNASC_DESC== "FRANCA")

## # A tibble: 2,020 x 4
##    UFRES PNASC_DESC SEXO_DESCRICAO ano  
##    <chr> <fct>      <fct>          <fct>
##  1 SC    FRANCA     Feminino       2010 
##  2 SC    ITALIA     Masculino      2010 
##  3 SC    ITALIA     Masculino      2010 
##  4 SC    ITALIA     Masculino      2010 
##  5 SC    ITALIA     Feminino       2010 
##  6 SC    ALEMANHA   Masculino      2010 
##  7 SC    ITALIA     Feminino       2010 
##  8 SC    FRANCA     Masculino      2010 
##  9 SC    ALEMANHA   Feminino       2010 
## 10 SC    ITALIA     Masculino      2010 
## # … with 2,010 more rows
Para filtrar mais de um caso precisamos repetir o nome da variável a ser filtrada seguida de == e o nome do caso que queremos. O operador que separa cada caso “|” é ou que chamamos de operador booleano OU. Assim, dizemos para o R que queremos filtrar Alemanha ou França ou Italia e ele nos retorna apenas as linhas desses países. Porém, repare que para selecionar todos os países que queremos teríamos que fazer isso sete vezes. O código ficaria enorme. Não há problema nenhum de fazer isso, mas existe uma forma mais sucinta.

Vejamos a segunda forma. Podemos salvar os nomes dos países em um vetor, como vimos no início deste workshop, e utilizar este vetor dentro da função filter() com o símbolo %in%. Vou salvar essa operação direto no objeto migração e este será meu banco de migração final.

#criando vetor de países
pais_mig<-c("ALEMANHA", "REPUBLICA POPULAR DA CHINA", "ESTADOS UNIDOS DA AMERICA",
            "FRANCA", "ITALIA", "JAPAO", "REINO UNIDO")

#aplicando o vetor à função filter
migracao<-migracao%>%
  filter(PNASC_DESC %in% pais_mig)

migracao

## # A tibble: 3,317 x 4
##    UFRES PNASC_DESC                 SEXO_DESCRICAO ano  
##    <chr> <fct>                      <fct>          <fct>
##  1 SC    FRANCA                     Feminino       2010 
##  2 SC    ESTADOS UNIDOS DA AMERICA  Masculino      2010 
##  3 SC    ITALIA                     Masculino      2010 
##  4 SC    REPUBLICA POPULAR DA CHINA Feminino       2010 
##  5 SC    ITALIA                     Masculino      2010 
##  6 SC    ITALIA                     Masculino      2010 
##  7 SC    ITALIA                     Feminino       2010 
##  8 SC    ALEMANHA                   Masculino      2010 
##  9 SC    ITALIA                     Feminino       2010 
## 10 SC    FRANCA                     Masculino      2010 
## # … with 3,307 more rows

Agrupando dados

Queremos saber o total de homens e mulheres que entraram em Santa Catarina por país e ano. Para isso teremos que agrupar as colunas PNASC_DESC, SEXO_DESCRICAO e ano e contá-las. O resultado disso será uma linha para cada país, sexo e ano com o respectivo total. Salvarei o resultado em um objeto separado para não perder os dados primários que limpamos. Para isso usamos a função group_by() para selecionar as colunas que serão agrupadas e a função count() para contar quantas linhas foram agrupadas em cada grupo.

migracao_ano_sexo<-migracao%>%
  group_by(PNASC_DESC, SEXO_DESCRICAO, ano)%>%
  count(name="tot_ano_sexo")

migracao

## # A tibble: 3,317 x 4
##    UFRES PNASC_DESC                 SEXO_DESCRICAO ano  
##    <chr> <fct>                      <fct>          <fct>
##  1 SC    FRANCA                     Feminino       2010 
##  2 SC    ESTADOS UNIDOS DA AMERICA  Masculino      2010 
##  3 SC    ITALIA                     Masculino      2010 
##  4 SC    REPUBLICA POPULAR DA CHINA Feminino       2010 
##  5 SC    ITALIA                     Masculino      2010 
##  6 SC    ITALIA                     Masculino      2010 
##  7 SC    ITALIA                     Feminino       2010 
##  8 SC    ALEMANHA                   Masculino      2010 
##  9 SC    ITALIA                     Feminino       2010 
## 10 SC    FRANCA                     Masculino      2010 
## # … with 3,307 more rows
…
